…
dim(q1_reading)
```

    ## [1] 272   7

``` r
q1_reading
```

    ## # A tibble: 272 × 7
    ##    reading_avg              council   girl_code        school   enrolled
    ##          <dbl>                <chr>       <chr>         <chr>      <chr>
    ## 1            1 West Central Council 320LA021505 BLAKE ACADEMY 09/01/2016
    ## 2            1 West Central Council 320NC041704 BLAKE ACADEMY 09/01/2016
    ## 3            2 West Central Council 320AC040205 BLAKE ACADEMY 09/01/2016
    ## 4            1 West Central Council 320SG022305 BLAKE ACADEMY 09/01/2016
    ## 5            2 West Central Council 320AH071505 BLAKE ACADEMY 09/01/2016
    ## 6            1 West Central Council 320CI061405 BLAKE ACADEMY 09/01/2016
    ## 7            1 West Central Council 320DJ040604 BLAKE ACADEMY 09/01/2016
    ## 8            3 West Central Council 320AM031505 BLAKE ACADEMY 09/01/2016
    ## 9            2 West Central Council 320CP041705 BLAKE ACADEMY 09/01/2016
    ## 10           1 West Central Council 320VS052505 BLAKE ACADEMY 09/01/2016
    ## # ... with 262 more rows, and 2 more variables: reading_course <chr>,
    ## #   Grade <chr>
…
``` r
q1_freereading <- na.omit(q1_freereading) #clean up to find cases with data



dim(q1_freereading)
```

    ## [1] 30  7

``` r
q1_freereading
```

    ## # A tibble: 30 × 7
    ##    reading_avg              council   girl_code        school   enrolled
    ##          <dbl>                <chr>       <chr>         <chr>      <chr>
    ## 1            3 West Central Council 320AC100104 BLAKE ACADEMY 09/01/2016
    ## 2            4 West Central Council 320CC050705 BLAKE ACADEMY 09/01/2016
    ## 3            1 West Central Council 320NC041704 BLAKE ACADEMY 09/01/2016
    ## 4            3 West Central Council 320MC111104 BLAKE ACADEMY 09/01/2016
    ## 5            2 West Central Council 320AC040205 BLAKE ACADEMY 09/01/2016
    ## 6            3 West Central Council 320JG022305 BLAKE ACADEMY 09/01/2016
    ## 7            1 West Central Council 320SG022305 BLAKE ACADEMY 09/01/2016
    ## 8            1 West Central Council 320VS052505 BLAKE ACADEMY 09/01/2016
    ## 9            1 West Central Council 320AW072404 BLAKE ACADEMY 09/01/2016
    ## 10           2 West Central Council 320CM120402 BLAKE ACADEMY 10/01/2015
    ## # ... with 20 more rows, and 2 more variables: reading_course <chr>,
    ## #   Grade <chr>
…
``` r
q1_reading <- rbind(q1_reading, q1_freereading) #bind main q1_reading and free text

dim(q1_reading)
```

    ## [1] 286   7

``` r
q1_reading
```

    ## # A tibble: 286 × 7
    ##    reading_avg              council   girl_code        school   enrolled
    ## *        <dbl>                <chr>       <chr>         <chr>      <chr>
    ## 1            1 West Central Council 320LA021505 BLAKE ACADEMY 09/01/2016
    ## 2            1 West Central Council 320NC041704 BLAKE ACADEMY 09/01/2016
    ## 3            2 West Central Council 320AC040205 BLAKE ACADEMY 09/01/2016
    ## 4            1 West Central Council 320SG022305 BLAKE ACADEMY 09/01/2016
    ## 5            2 West Central Council 320AH071505 BLAKE ACADEMY 09/01/2016
    ## 6            1 West Central Council 320CI061405 BLAKE ACADEMY 09/01/2016
    ## 7            1 West Central Council 320DJ040604 BLAKE ACADEMY 09/01/2016
    ## 8            3 West Central Council 320AM031505 BLAKE ACADEMY 09/01/2016
    ## 9            2 West Central Council 320CP041705 BLAKE ACADEMY 09/01/2016
    ## 10           1 West Central Council 320VS052505 BLAKE ACADEMY 09/01/2016
    ## # ... with 276 more rows, and 2 more variables: reading_course <chr>,
    ## #   Grade <chr>
…
names(q1_langarts)
```

    ## [1] "lang_avg"        "council"         "girl_code"       "school"         
    ## [5] "enrolled"        "langarts_course" "grade"

``` r
q1_langarts <- na.omit(q1_langarts) #get rid of cases with no entry

q1_langarts
```

    ## # A tibble: 578 × 7
    ##    lang_avg              council     girl_code                    school
    ##       <dbl>                <chr>         <chr>                     <chr>
    ## 1         4       Citrus Council 312SP04272003 Robinswood  Middle School
    ## 2         3 West Central Council   320LA021505             BLAKE ACADEMY
    ## 3         3 West Central Council   320JA020205             BLAKE ACADEMY
    ## 4         4 West Central Council   320NC041704             BLAKE ACADEMY
    ## 5         3 West Central Council   320AC040205             BLAKE ACADEMY
    ## 6         3 West Central Council   320CG072705             BLAKE ACADEMY
    ## 7         4 West Central Council   320JG022305             BLAKE ACADEMY
    ## 8         3 West Central Council   320SG022305             BLAKE ACADEMY
    ## 9         3 West Central Council   320AH071505             BLAKE ACADEMY
    ## 10        4 West Central Council   320CI061405             BLAKE ACADEMY
    ## # ... with 568 more rows, and 3 more variables: enrolled <chr>,
    ## #   langarts_course <chr>, grade <chr>
…
