…
dim(q2_reading)
```

    ## [1] 134   7

``` r
q2_reading
```

    ## # A tibble: 134 × 7
    ##    reading_avg           council   girl_code school   enrolled
    ##          <int>             <chr>       <chr>  <chr>      <chr>
    ## 1            0 Panhandle Council 322MR071804  Jinks 02/08/2017
    ## 2            0 Panhandle Council 322EL080503  Jinks 02/08/2017
    ## 3            0 Panhandle Council 322TH052216  Jinks 02/08/2017
    ## 4            0 Panhandle Council 322CT072705  Jinks 02/08/2017
    ## 5            0 Panhandle Council 322AC113004  Jinks 02/08/2017
    ## 6            0   Gateway Council 322SW121306  Jinks 02/08/2017
    ## 7            0 Panhandle Council 322CR121504  Jinks 02/08/2017
    ## 8            0 Panhandle Council 322MC020204  Jinks 02/08/2017
    ## 9            0 Panhandle Council 322TR072404  Jinks 02/08/2017
    ## 10           0 Panhandle Council 322ZR012404  Jinks 02/08/2017
    ## # ... with 124 more rows, and 2 more variables: reading_course <chr>,
    ## #   Grade <chr>
…
``` r
q2_reading <- rbind(q2_reading, q2_freereading) #bind main q2_reading and free text

dim(q2_reading)
```

    ## [1] 134   7

``` r
q2_reading
```

    ## # A tibble: 134 × 7
    ##    reading_avg           council   girl_code school   enrolled
    ## *        <int>             <chr>       <chr>  <chr>      <chr>
    ## 1            0 Panhandle Council 322MR071804  Jinks 02/08/2017
    ## 2            0 Panhandle Council 322EL080503  Jinks 02/08/2017
    ## 3            0 Panhandle Council 322TH052216  Jinks 02/08/2017
    ## 4            0 Panhandle Council 322CT072705  Jinks 02/08/2017
    ## 5            0 Panhandle Council 322AC113004  Jinks 02/08/2017
    ## 6            0   Gateway Council 322SW121306  Jinks 02/08/2017
    ## 7            0 Panhandle Council 322CR121504  Jinks 02/08/2017
    ## 8            0 Panhandle Council 322MC020204  Jinks 02/08/2017
    ## 9            0 Panhandle Council 322TR072404  Jinks 02/08/2017
    ## 10           0 Panhandle Council 322ZR012404  Jinks 02/08/2017
    ## # ... with 124 more rows, and 2 more variables: reading_course <chr>,
    ## #   Grade <chr>
``` r
which(is.na(q2_reading$Grade))
```

    ## integer(0)

``` r
q2_reading <- q2_reading %>%
    filter(Grade != "Did not mean to select this course")


q2_reading
```

    ## # A tibble: 126 × 7
    ##    reading_avg           council   girl_code school   enrolled
    ##          <int>             <chr>       <chr>  <chr>      <chr>
    ## 1            0 Panhandle Council 322MR071804  Jinks 02/08/2017
    ## 2            0 Panhandle Council 322EL080503  Jinks 02/08/2017
    ## 3            0 Panhandle Council 322TH052216  Jinks 02/08/2017
    ## 4            0 Panhandle Council 322CT072705  Jinks 02/08/2017
    ## 5            0 Panhandle Council 322AC113004  Jinks 02/08/2017
    ## 6            0   Gateway Council 322SW121306  Jinks 02/08/2017
    ## 7            0 Panhandle Council 322CR121504  Jinks 02/08/2017
    ## 8            0 Panhandle Council 322MC020204  Jinks 02/08/2017
    ## 9            0 Panhandle Council 322TR072404  Jinks 02/08/2017
    ## 10           0 Panhandle Council 322ZR012404  Jinks 02/08/2017
    ## # ... with 116 more rows, and 2 more variables: reading_course <chr>,
    ## #   Grade <chr>
…
names(q2_langarts)
```

    ## [1] "lang_avg"        "council"         "girl_code"       "school"         
    ## [5] "enrolled"        "langarts_course" "grade"

``` r
q2_langarts <- na.omit(q2_langarts) #get rid of cases with no entry

q2_langarts
```

    ## # A tibble: 281 × 7
    ##    lang_avg              council   girl_code          school   enrolled
    ##       <int>                <chr>       <chr>           <chr>      <chr>
    ## 1         4 West Central Council 320NG052903 KATHLEEN MIDDLE 11/01/2016
    ## 2         2    Panhandle Council 322MR071804           Jinks 02/08/2017
    ## 3         3    Panhandle Council 322EL080503           Jinks 02/08/2017
    ## 4         2    Panhandle Council 322LN080204           Jinks 02/08/2017
    ## 5         3    Panhandle Council 322CT072705           Jinks 02/08/2017
    ## 6         3    Panhandle Council 322GG110304           Jinks 02/08/2017
    ## 7         1    Panhandle Council 322KM040604           Jinks 02/08/2017
    ## 8         3      Gateway Council 322SW121306           Jinks 02/08/2017
    ## 9         2    Panhandle Council 322CR121504           Jinks 02/08/2017
    ## 10        2    Panhandle Council 322TR072404           Jinks 02/08/2017
    ## # ... with 271 more rows, and 2 more variables: langarts_course <chr>,
    ## #   grade <chr>
…
    ## # A tibble: 0 × 7
    ## # ... with 7 variables: lang_avg <int>, council <chr>, girl_code <chr>,
    ## #   school <chr>, enrolled <chr>, langarts_course <chr>, grade <chr>

    ## [1] "lang_avg"        "council"         "girl_code"       "school"         
    ## [5] "enrolled"        "langarts_course" "grade"

``` r
q2_langarts <- rbind(q2_langarts, q2_freelang_english)


q2_langarts
```

    ## # A tibble: 281 × 7
    ##    lang_avg              council   girl_code          school   enrolled
    ## *     <int>                <chr>       <chr>           <chr>      <chr>
    ## 1         4 West Central Council 320NG052903 KATHLEEN MIDDLE 11/01/2016
    ## 2         2    Panhandle Council 322MR071804           Jinks 02/08/2017
    ## 3         3    Panhandle Council 322EL080503           Jinks 02/08/2017
    ## 4         2    Panhandle Council 322LN080204           Jinks 02/08/2017
    ## 5         3    Panhandle Council 322CT072705           Jinks 02/08/2017
    ## 6         3    Panhandle Council 322GG110304           Jinks 02/08/2017
    ## 7         1    Panhandle Council 322KM040604           Jinks 02/08/2017
    ## 8         3      Gateway Council 322SW121306           Jinks 02/08/2017
    ## 9         2    Panhandle Council 322CR121504           Jinks 02/08/2017
    ## 10        2    Panhandle Council 322TR072404           Jinks 02/08/2017
    ## # ... with 271 more rows, and 2 more variables: langarts_course <chr>,
    ## #   grade <chr>
…
