…
dim(q3_reading)
```

    ## [1] 137   7

``` r
q3_reading
```

    ## # A tibble: 137 × 7
    ##    reading_avg           council   girl_code   school   enrolled
    ##          <int>             <chr>       <chr>    <chr>      <chr>
    ## 1            4 Panhandle Council 322ZR120704    Jinks 10/31/2016
    ## 2            2 Panhandle Council 322SW121306    Jinks 10/31/2016
    ## 3            1 Panhandle Council 322NB071204    Jinks 10/31/2016
    ## 4            2 Panhandle Council 322CT072705    Jinks 10/31/2016
    ## 5            1 Panhandle Council 322CR121504    Jinks 10/31/2016
    ## 6            3 Panhandle Council 322MR071804    Jinks 10/31/2016
    ## 7            2 Panhandle Council 322DB062904  Everitt 10/31/2016
    ## 8            3 Panhandle Council 322AS103104  Everitt 10/31/2016
    ## 9            2 Panhandle Council 322CB083004 Evereitt 10/31/2016
    ## 10           2 Panhandle Council 322JG102803  Everitt 10/31/2016
    ## # ... with 127 more rows, and 2 more variables: reading_course <chr>,
    ## #   Grade <chr>
…
``` r
q3_reading <- rbind(q3_reading, q3_freereading) #bind main q3_reading and free text

dim(q3_reading)
```

    ## [1] 137   7

``` r
q3_reading
```

    ## # A tibble: 137 × 7
    ##    reading_avg           council   girl_code   school   enrolled
    ## *        <int>             <chr>       <chr>    <chr>      <chr>
    ## 1            4 Panhandle Council 322ZR120704    Jinks 10/31/2016
    ## 2            2 Panhandle Council 322SW121306    Jinks 10/31/2016
    ## 3            1 Panhandle Council 322NB071204    Jinks 10/31/2016
    ## 4            2 Panhandle Council 322CT072705    Jinks 10/31/2016
    ## 5            1 Panhandle Council 322CR121504    Jinks 10/31/2016
    ## 6            3 Panhandle Council 322MR071804    Jinks 10/31/2016
    ## 7            2 Panhandle Council 322DB062904  Everitt 10/31/2016
    ## 8            3 Panhandle Council 322AS103104  Everitt 10/31/2016
    ## 9            2 Panhandle Council 322CB083004 Evereitt 10/31/2016
    ## 10           2 Panhandle Council 322JG102803  Everitt 10/31/2016
    ## # ... with 127 more rows, and 2 more variables: reading_course <chr>,
    ## #   Grade <chr>
…
names(q3_langarts)
```

    ## [1] "lang_avg"        "council"         "girl_code"       "school"         
    ## [5] "enrolled"        "langarts_course" "grade"

``` r
q3_langarts <- na.omit(q3_langarts) #get rid of cases with no entry

q3_langarts
```

    ## # A tibble: 386 × 7
    ##    lang_avg           council   girl_code   school   enrolled
    ##       <int>             <chr>       <chr>    <chr>      <chr>
    ## 1         2 Panhandle Council 322LN080204    Jinks 10/31/2016
    ## 2         2 Panhandle Council 322EL080504    Jinks 10/31/2016
    ## 3         1 Panhandle Council 322SW121306    Jinks 10/31/2016
    ## 4         2 Panhandle Council 322CT072705    Jinks 10/31/2016
    ## 5         1 Panhandle Council 322CR121504    Jinks 10/31/2016
    ## 6         3 Panhandle Council 322MR071804    Jinks 10/31/2016
    ## 7         3 Panhandle Council 322AS103104  Everitt 10/31/2016
    ## 8         3 Panhandle Council 322CB083004 Evereitt 10/31/2016
    ## 9         2 Panhandle Council 322CD010505  Everitt 10/31/2016
    ## 10        1 Panhandle Council 322DM050605  Everitt 10/31/2016
    ## # ... with 376 more rows, and 2 more variables: langarts_course <chr>,
    ## #   grade <chr>
…
